{

  "profiles": {
    "repomgr": {
      "commandName": "Project",
      "launchBrowser": false,
      "applicationUrl": "http://localhost:5000",
      "environmentVariables": {
        "ASPNETCORE_ENVIRONMENT": "Production"
      },
      "commandLineArgs": "/opt/repomgr daemon"
    }
  }
}